239640 304868 407
367965 401494 436
463761 775874 509
589425 339046 470
536571 815667 509
233076 91589 443
308491 3750 443
769147 869265 525
99107 350936 443
882812 869842 432
353739 585815 470
548990 517534 452
334898 706822 509
589537 766644 509
668224 953689 525
364982 802115 509
972646 35095 525
28954 535530 470
616339 503817 470
718159 898884 525
31020 195516 383
883135 599286 525
589429 511906 470
854325 238471 525
88577 3275 351
751842 214897 509
68946 300776 443
388901 481542 449
337852 52019 443
729808 734406 380
582018 816171 509
212351 250303 443
320586 704583 509
901790 251487 525
696625 720128 504
665967 309277 509
277481 248386 407
804363 618558 509
699135 570471 509
849060 702285 525
685701 135336 509
298526 232028 407
304432 791252 509
90474 603814 470
64208 522829 470
838905 727651 525
560208 705179 509
331478 550520 470
157884 384635 443
800897 954271 525
12934 450367 449
729457 214066 509
989667 699026 525
841932 485745 525
990211 121384 525
777848 669303 504
470 324171 443
620961 863677 525
526850 337468 470
644022 467616 509
940617 477907 525
705833 859324 525
47933 964311 525
600337 729103 509
11717 496934 449
45649 712945 509
551175 932670 525
636113 879273 525
328952 266245 407
567158 760414 509
395113 114837 443
654338 73016 509
749091 165613 509
360535 690654 509
383860 650229 509
827985 837500 419
844671 909562 445
150375 696546 509
820321 821031 313
447795 168124 449
175116 573082 470
731309 638239 504
327184 684439 509
911266 248759 525
257923 248997 363
894924 677365 525
837355 742316 468
794260 650907 504
120325 408538 443
245176 724465 509
831175 692314 504
767165 568648 509
386362 860242 525
703443 633940 442
317419 41563 443
9970 4025 262
466098 366793 449
452209 305064 449
651525 136451 509
573211 462989 470
914580 74281 525
631694 63244 509
128062 664911 509
223317 786896 509
572737 836385 509
38672 86508 351
239538 787542 509
761187 230506 509
298076 467193 449
659134 448712 509
337741 478733 449
119675 873304 525
751045 871484 525
119640 904135 525
554610 611892 434
406704 241016 441
785741 83023 509
560794 987584 525
484664 44328 449
671920 708346 504
433012 300370 449
775010 968289 525
979338 42139 525
672431 142293 509
2508 954079 525
550288 295230 470
630089 1713 509
390370 1359 443
994987 599221 525
390656 633651 509
822017 726755 468
570031 130339 470
986069 176642 525
25286 960281 525
938903 224648 525
396218 486656 449
472498 836825 509
919209 304332 525
653084 335970 509
18416 406763 443
632641 128584 509
63531 972447 525
168002 635393 509
779757 781634 362
340541 55546 443
534192 725653 509
678162 946107 525
782112 761551 468
33041 953348 525
247637 493441 449
978344 105280 525
697668 262653 509
373490 850037 525
261687 786201 509
783474 457119 509
261512 575744 470
567920 371827 470
954175 922751 507
667368 288894 509
687428 464287 509
621799 631516 509
325066 573735 470
905216 97477 525
197791 59621 383
706673 303788 509
365895 937529 525
26852 580453 470
415576 824917 509
517215 636552 509
223414 217790 355
172977 982217 525
151854 508937 449
375733 136899 443
490325 446222 444
317914 824253 509
75812 426962 449
301860 631391 509
61563 318452 443
353798 109997 443
925470 340860 525
603560 103537 470
915782 545377 525
565757 493931 470
437384 72614 449
959757 649567 525
978973 451021 525
731484 372385 509
986660 278243 525
756051 920906 525
956348 487657 525
226029 290469 443
918305 456033 525
615998 559285 447
272247 280900 389
561399 952084 525
342578 146088 443
502184 89246 449
673070 955955 525
790326 911276 525
863278 646219 525
952001 596072 525
279630 68676 443
749778 179043 509
522310 631434 509
894868 705352 525
560197 376834 470
197445 785028 509
869610 844445 419
955324 296857 525
789611 152091 509
349798 627124 509
976063 589060 525
35912 594252 470
142777 980624 525
483632 788625 509
