954911 184617 525
860871 550697 525
292502 783801 509
483703 930625 525
402786 378757 436
47265 938765 525
183393 384625 443
779053 186349 509
353468 383652 423
961467 546421 525
447291 78882 449
345131 467744 449
35908 650917 509
180584 4242 383
48008 568592 470
893670 769131 525
113641 82228 354
708031 489761 509
932082 166528 525
865484 323362 525
714052 819160 468
337502 125957 443
365303 980188 525
20976 431821 449
600543 996775 525
49478 129488 354
266148 315459 407
905632 309847 525
419489 504108 444
26743 227733 386
139737 658114 509
872922 838060 432
342056 985904 525
36123 875136 525
69234 478311 449
766085 613151 509
325207 883894 525
26247 969909 525
716500 126639 509
155401 435004 449
554449 693082 509
144293 113643 375
582194 466923 470
280547 873673 525
631653 526542 509
287829 628051 509
145580 18168 375
897148 145554 525
631958 248337 509
573437 252037 470
202564 725869 509
883986 597924 525
269224 469995 449
316099 885109 525
931591 431880 525
714687 653214 504
306989 591433 470
740770 223228 509
324989 384739 441
329114 696557 509
148615 336728 443
774042 101232 509
306391 771369 509
947154 284111 525
258398 454181 449
108860 941157 525
648633 580981 509
115595 628871 509
599161 625560 447
144333 166946 383
561523 410336 470
554169 593630 434
341484 868066 525
267714 518014 470
128567 833533 509
363487 20521 443
728384 579729 509
693152 561172 509
266944 449336 449
997628 360141 525
442046 886046 525
706548 839239 525
802493 930356 525
646937 878345 525
872667 140052 525
677923 585543 509
343448 505595 449
294969 894691 525
863336 522224 525
217490 179117 386
533225 54476 470
622714 384778 470
906255 156180 525
613876 181437 470
944227 552090 525
597527 3198 470
788021 154886 509
328220 953039 525
379736 342598 441
464469 97472 449
905253 469339 525
226422 674592 509
988004 646650 525
429390 2476 449
825957 232934 509
751888 518389 509
456115 447712 387
46311 157500 383
277654 471576 449
923641 875858 476
791060 877169 525
712057 599602 509
716725 468766 509
402375 141731 443
200721 476489 449
765026 202014 509
839311 968904 507
837512 64612 509
710291 836616 468
520249 673647 509
656141 549578 509
161505 603613 470
378569 999967 525
118005 959485 525
499687 852526 525
324782 453924 449
207485 846794 525
129170 943203 525
368931 167226 443
488379 956635 525
813200 494050 509
844795 185730 525
611800 997391 525
510214 562087 470
173932 642736 509
442838 921490 525
422418 63173 449
536722 254323 470
961471 273252 525
353650 868861 525
482050 172417 449
63295 811351 509
59544 476808 449
515356 108318 470
48370 257646 443
538317 186797 470
747651 495071 509
969151 498396 525
162606 594529 470
813474 859076 525
396210 491929 449
928681 3018 525
624093 764890 509
18774 531373 470
815070 440119 509
479814 961621 525
551891 358596 470
222324 314373 443
360827 837208 509
115087 200637 383
747272 339996 509
856748 434311 525
924869 958545 507
534607 42300 470
693443 916758 525
255020 511611 449
701288 425855 509
19593 337110 443
219411 163349 386
825670 236334 509
714293 260126 509
633644 748783 504
274755 652123 509
302068 931965 525
361717 235333 441
491856 664509 509
250115 644852 509
692288 161625 509
897494 461812 525
840750 314718 525
549671 999820 525
450850 103209 449
420246 888472 525
916556 145226 525
314501 890476 525
136960 701531 509
853486 647692 525
769198 212251 509
225594 932603 525
892831 946095 507
426566 826077 509
576635 518517 452
922059 159722 525
291990 497465 449
807163 511186 509
719417 817803 468
25431 239755 443
986028 140876 525
133022 252533 443
860162 580241 525
374727 609612 470
307721 995549 525
256662 278223 407
91408 815146 509
253577 14997 443
29048 534668 470
303275 177934 443
243611 908189 525
813848 935710 525
392870 451692 449
384124 238136 441
738382 771948 468
993101 560973 525
942116 908006 507
312744 143354 443
54608 373756 443
84707 916553 525
88688 95833 333
177607 106846 383
952407 517250 525
677824 246791 509
165133 295661 443
784539 885967 525
875659 355708 525
435608 572272 470
919586 443612 525
293509 122581 443
25518 222333 386
200843 844264 525
762256 866294 525
748791 7360 509
902893 664958 525
504847 777040 509
482233 653671 509
