24284 296748
900425 867143
952611 182119
514988 888879
390989 121253
950336 649818
701880 245633
258044 542593
153527 915464
174072 693023
509080 65481
337276 762382
509822 144625
686316 409316
898148 684599
477371 711187
179089 279245
98496 698556
450887 685548
921675 672916
131782 318740
231457 945056
439271 592271
926641 291022
254567 817227
698483 87292
85158 319232
779507 479817
820072 537299
492488 912685
330352 745921
173462 858440
910721 369269
103777 354362
654831 312656
918615 257961
82682 725379
673030 381983
879790 532888
606303 571928
758867 267619
235377 226584
110435 274199
333158 901632
378691 93712
402845 93389
652936 752485
15364 500377
553151 336382
268234 740283
738006 509528
503943 903522
226685 176324
59654 709864
900839 164644
237063 644491
927617 686564
584032 277241
691515 627987
611594 77417
773411 500391
829661 630704
366620 667081
69298 157218
675323 957595
374649 276355
794147 148968
327921 174300
932427 803955
541366 837439
733596 653164
116132 592427
27878 66426
335909 771035
956934 869094
359302 555702
697619 297303
232322 696324
361403 990705
85429 533074
360796 362515
62734 563886
876122 563668
354441 724104
90536 854642
817993 210849
752916 726199
882604 744002
868892 247431
544002 223855
41885 555562
801953 984986
509597 773859
110889 962739
398381 277043
111933 181633
834824 647016
518434 978986
752306 310448
57273 373861
993255 573539
520388 452709
746703 362362
549809 546315
970940 964594
241073 884576
219793 887751
549808 401357
328365 181975
782611 488980
220992 625287
119402 979325
691095 786486
586287 423645
935453 506319
979291 103390
269925 985360
314012 969641
720440 574211
244709 18514
519804 419170
141512 688167
433384 986256
371894 631440
401883 123330
375014 925423
644226 226940
342405 984924
888252 285162
150104 97925
857057 520218
841500 319041
92516 831587
895731 78444
376836 765044
313984 155899
811988 397180
542046 766333
687052 109149
367344 151792
903901 900225
683978 756105
611286 299646
964673 215452
246983 911229
453078 73562
246592 290428
537159 398863
349036 309404
403323 171770
231498 862514
702062 985479
445616 773580
638449 111076
645960 17982
423480 942022
882343 31776
871704 636738
114966 92972
919855 525076
117287 409880
875903 244387
379684 921078
848980 335918
729601 663649
934211 329722
843730 27348
546652 730645
252159 172696
229782 241731
32254 497165
846170 173619
784644 82234
358205 519801
268593 777007
28262 984329
729429 391312
77024 144558
422474 692924
555561 444849
517748 249494
246111 834596
375276 443561
715264 927983
711469 36429
979309 777078
328389 254332
379014 664437
763920 569168
255301 312689
855416 723428
832509 216834
495634 239763
723824 703259
875380 125303
185080 657197
1903 42238
403141 379341
771799 46719
669858 311020
265601 266513
296872 416266
801225 572611
853921 62275
864481 399650
930227 759608
616824 779562
619641 168636
199744 598062
144175 694277
594014 731243
790916 665004
379429 204368
898311 435937
207041 748872
845765 580450
84543 231799
923717 693891
616404 810633
423583 825924
193050 821637
19779 501998
298041 575258
802321 901999
246088 557178
877729 780783
579642 261024
856709 36730
42175 214763
457233 366934
431371 356145
99945 296297
156276 532676
